154, 159
172, 84
235, 204
181, 122
161, 337
305, 104
128, 298
176, 328
146, 71
210, 87
341, 195
50, 96
225, 151
86, 171
239, 68a
79, 50
191, 284
200, 122
282, 240
224, 282
327, 74
158, 289
331, 244
154, 327
317, 110
272, 179
173, 175
187, 104
44, 194
202, 332
249, 197
244, 225
52, 127
299, 198
123, 198
349, 75
233, 72
284, 130
119, 150
172, 355
147, 314
58, 335
341, 348
236, 115
185, 270
173, 145
46, 288
214, 127
158, 293
237, 311